0.506333 -0.707233 -0.606333 0.405433
0.529633 -0.733233 -0.629633 0.426033
0.581572 -0.789672 -0.681572 0.473472
0.682162 -0.896562 -0.782162 0.567762
0.865703 -1.0882 -0.965703 0.743203
1.15016 -0.892868 -1.25016 1.01776
0.90883 -0.820965 -1.00883 0.767614
0.762353 -0.826465 -1.16154 0.591272
0.65318 -0.86154 -1.0399 0.440904
0.584183 -0.928215 -1.13334 0.318536
0.532535 -1.00954 -1.04528 0.207222
0.494908 -0.922019 -1.12463 0.104406
0.478453 -0.850077 -1.06113 0.013573
0.485496 -0.794466 -1.11111 -0.0645297
0.502263 -0.745618 -1.06088 -0.13947
0.535801 -0.705401 -1.11841 -0.209378
0.582666 -0.672039 -1.05014 -0.276031
0.654602 -0.646632 -1.14089 -0.33833
0.755582 -0.629695 -1.03163 -0.395758
0.905099 -0.621127 -1.1789 -0.448417
1.10976 -0.621007 -1.00023 -0.496229
0.896857 -0.623886 -1.17066 -0.544641
0.739582 -0.630773 -1.04859 -0.592646
0.638684 -0.641546 -1.12304 -0.640365
0.561178 -0.654225 -1.06323 -0.689777
0.509247 -0.668573 -1.11059 -0.74112
0.470768 -0.684269 -1.06355 -0.794715
0.449884 -0.700686 -1.11441 -0.85119
0.441882 -0.717923 -1.05502 -0.910445
0.453975 -0.734446 -1.13016 -0.974013
0.484128 -0.750443 -1.03723 -1.04171
0.540332 -0.763258 -1.15593 -0.978953
0.624247 -0.772684 -1.01312 -0.923189
0.755907 -0.779457 -1.20008 -0.873677
0.935339 -0.783719 -0.968998 -0.830275
1.1195 -0.789622 -0.742643 -0.788833
0.990025 -0.797279 -0.576772 -0.749237
1.06512 -0.806859 -0.471693 -0.711319
1.0074 -0.819616 -0.390397 -0.673823
1.04955 -0.835975 -0.334695 -0.636324
1.00915 -0.855634 -0.290779 -0.599126
1.05149 -0.879787 -0.262335 -0.561034
1.00159 -0.907733 -0.243732 -0.522749
1.06534 -0.942389 -0.241254 -0.481354
0.988712 -0.984222 -0.255875 -0.436382
1.08315 -0.950413 -0.292531 -0.383693
0.970592 -0.927917 -0.350916 -0.323292
0.862931 -0.909379 -0.414194 -0.262534
0.763635 -0.896725 -0.485838 -0.19949
0.678545 -0.893527 -0.571688 -0.130591
0.617431 -0.906294 -0.681513 -0.0493269
0.596597 -0.94669 -0.831619 0.0559665
0.643375 -1.03529 -1.04934 0.205859
0.736428 -0.919801 -0.793144 0.386559
0.833582 -0.809148 -0.541052 0.568491
0.932071 -0.701603 -0.290295 0.749931
1.03469 -0.600551 -0.0436662 0.934263
0.934951 -0.513221 0.194089 1.12872
0.863466 -0.485646 0.403592 0.97549
0.819156 -0.52471 0.58592 0.8853
0.779827 -0.581919 0.763267 0.809655
0.740737 -0.646843 0.940376 0.738126
0.699757 -0.731885 1.11937 0.683115
0.653693 -0.842814 0.941569 0.650391
0.600504 -0.986798 0.77089 0.647121
0.541556 -0.839167 0.605969 0.679739
0.480602 -0.715816 0.443056 0.733038
0.419444 -0.600833 0.280345 0.791104
0.358376 -0.489363 0.117545 0.849084
0.297757 -0.382457 -0.0457042 0.908028
0.238815 -0.284354 -0.210631 0.972174
0.184494 -0.202208 -0.380178 1.04868
0.136644 -0.13813 -0.556196 0.969816
0.092508 -0.0837265 -0.735928 0.897028
0.0528448 -0.0366565 -0.920133 0.827974
0.0279558 -0.00566642 -1.11911 0.771399
0.0382432 -0.00260314 -0.933559 0.739152
0.0808612 -0.0239309 -0.780335 0.727696
0.133778 -0.0551677 -0.63741 0.722548
0.189196 -0.0904196 -0.496987 0.717816
0.245331 -0.128276 -0.35728 0.712088
0.303262 -0.170333 -0.21937 0.706961
0.365016 -0.220235 -0.0852832 0.706078
0.433412 -0.284648 0.0421625 0.716108
0.512176 -0.375313 0.15924 0.748789
0.606177 -0.512399 0.26108 0.82429
0.722145 -0.730173 0.340953 0.97688
0.87047 -1.0868 0.38847 1.26473
1.06124 -0.75579 0.393546 1.0025
0.851354 -0.549386 0.371639 1.16263
0.660603 -0.409373 0.330603 1.04637
0.485181 -0.325982 0.274237 1.109
0.312562 -0.263135 0.215068 1.06393
0.142875 -0.223836 0.152967 1.09444
-0.0265758 -0.193624 0.09063 1.06402
-0.196905 -0.178024 0.0291711 1.09987
-0.368509 -0.175749 -0.0310123 1.05731
-0.545547 -0.195975 -0.0857627 1.11576
-0.730737 -0.24527 -0.13236 1.04799
-0.934307 -0.338263 -0.160578 1.1397
-1.16517 -0.489022 -0.1615 1.03811
-0.935864 -0.685347 -0.136739 1.13739
-0.726132 -0.917783 -0.0924006 1.03097
-0.54031 -1.22081 -0.0241523 1.17901
-0.389242 -0.940688 0.0788502 1.05388
-0.258045 -0.753557 0.201723 1.11398
-0.136756 -0.609083 0.334505 1.06857
-0.0234875 -0.498392 0.475306 1.09041
0.0857022 -0.402937 0.620186 1.07358
0.191778 -0.31911 0.768181 1.08179
0.296678 -0.24001 0.91735 1.07531
0.400218 -0.165893 1.06788 1.08032
0.492364 -0.114944 0.927934 1.09496
0.568591 -0.100002 0.803906 1.07351
0.639518 -0.102401 0.685178 1.08311
0.709897 -0.113031 0.566998 1.07625
0.781736 -0.143653 0.447359 1.09213
0.860018 -0.207455 0.321276 1.08041
0.956088 -0.321858 0.177404 1.10539
1.08619 -0.507676 -0.000499606 1.08797
0.959789 -0.770231 -0.224211 1.10315
0.890822 -1.12264 -0.505359 1.10334
0.86745 -0.739106 -0.8321 1.07202
0.863547 -0.384942 -1.17831 1.08974
0.921794 -0.0797166 -0.881135 1.10518
1.06434 0.164695 -0.668256 1.06845
0.943628 0.362082 -0.534615 1.11268
0.901357 0.517142 -0.479412 1.05626
0.890557 0.65484 -0.455679 1.09991
0.888656 0.787583 -0.440844 1.05663
0.895856 0.916001 -0.435112 1.09891
0.912095 1.04113 -0.438418 1.05659
0.946633 0.916575 -0.460022 1.09833
1.01752 0.787057 -0.517978 1.05945
0.934945 0.650662 -0.610884 1.09738
0.882542 0.505046 -0.733962 1.06274
0.883444 0.340278 -0.910346 1.10402
0.971915 0.139233 -1.1743 1.07323
1.11546 -0.0870814 -0.85981 1.08252
0.998581 -0.333316 -0.576524 1.08938
1.10046 -0.611074 -0.336111 1.07798
0.993051 -0.913108 -0.118045 1.08668
1.11511 -1.26833 0.0685559 1.10959
1.0005 -0.940933 0.201591 1.1145
1.09892 -0.721506 0.289796 1.07711
0.997939 -0.566852 0.351926 1.10379
1.09264 -0.454285 0.396827 1.06514
0.997026 -0.36763 0.431694 1.09959
1.09018 -0.298198 0.459896 1.06064
0.996706 -0.239881 0.484206 1.09798
1.08921 -0.18934 0.505915 1.05892
0.99659 -0.144222 0.526111 1.09735
1.08883 -0.103241 0.54529 1.05827
0.996526 -0.0654424 0.563896 1.09705
1.08871 -0.0303303 0.58212 1.05807
0.996449 0.00252837 0.600165 1.09682
1.08871 0.0333213 0.618102 1.05811
0.996454 0.0620246 0.635922 1.09679
1.08868 0.0887054 0.653649 1.05807
0.996647 0.113 0.671122 1.0972
1.08848 0.134936 0.688352 1.05763
0.997158 0.153784 0.705029 1.09837
1.08796 0.169575 0.721165 1.05644
0.998221 0.180941 0.736219 1.10093
1.0869 0.187875 0.750189 1.05388
1.00018 0.187901 0.762178 1.10596
1.08499 0.18081 0.772131 1.04906
1.00352 0.162215 0.778612 1.11517
1.08178 0.131499 0.781481 1.04047
1.00898 0.081001 0.778492 1.13142
1.07665 0.00920714 0.769325 1.02573
1.01763 -0.0971293 0.750457 1.15941
1.06869 -0.241338 0.721195 1.00107
1.03129 -0.446219 0.675849 1.20686
1.05651 -0.718605 0.612938 0.960449
1.03367 -1.02457 0.542248 0.74401
1.06999 -0.766177 0.447915 0.611811
1.02596 -0.600426 0.324169 0.568651
1.05956 -0.461202 0.189157 0.548417
1.02641 -0.325472 0.0528655 0.528078
1.06747 -0.200236 -0.0930626 0.514632
1.02775 -0.0907251 -0.257882 0.513311
1.08633 -0.00285959 -0.461794 0.530036
1.02712 0.0598359 -0.723026 0.568331
1.11719 0.0937749 -1.0718 0.631783
1.04019 0.0909514 -0.736097 0.728397
1.06562 0.0611334 -0.493375 0.848405
1.03501 0.0142405 -0.286894 0.981888
1.06828 -0.0556072 -0.114129 0.853874
1.03415 -0.153893 0.0231247 0.750699
1.05293 -0.269072 0.141079 0.660817
1.03576 -0.391471 0.253476 0.574554
1.05104 -0.521409 0.360602 0.49223
1.03553 -0.657377 0.464578 0.412337
1.05372 -0.805046 0.562953 0.340545
1.03667 -0.974605 0.651906 0.287042
1.05615 -1.18359 0.727859 0.26937
1.03603 -0.98061 0.789025 0.3065
1.05759 -1.19666 0.834603 0.417501
1.02885 -0.945915 0.87033 0.580742
1.05652 -0.709219 0.904454 0.75443
1.02881 -0.4791 0.938082 0.931095
1.0563 -0.253117 0.971473 1.1083
1.03251 -0.0885683 1.00115 0.990457
1.05263 0.0134716 0.975145 1.05001
1.03402 0.0918748 0.947565 1.00987
1.05111 0.14761 0.918421 1.02963
1.03503 0.194433 0.888221 1.0165
1.0502 0.231922 0.856868 1.02343
1.03534 0.265166 0.824962 1.01761
1.05036 0.292704 0.792027 1.02377
1.0348 0.316153 0.75844 1.01564
1.05212 0.333028 0.722974 1.02823
1.03353 0.342335 0.685137 1.01218
1.05604 0.340111 0.642294 1.03565
1.03078 0.324637 0.593281 1.00648
1.06383 0.289677 0.533054 1.04759
1.02535 0.23228 0.459244 0.997491
1.07822 0.142306 0.362895 1.06672
1.01546 0.0145045 0.239516 0.983609
1.10346 -0.168401 0.0737556 1.09788
0.998494 -0.416059 -0.142669 0.962099
1.12757 -0.73571 -0.416908 0.894711
1.00726 -1.15913 -0.781838 0.927488
1.09037 -0.69782 -1.20901 1.02556
1.08285 -0.318958 -0.857433 0.978928
1.05307 -0.0419315 -0.644783 1.03053
1.0685 0.176268 -0.519419 0.967972
1.0418 0.357066 -0.455726 0.939216
1.0504 0.52074 -0.424332 0.923985
1.03978 0.678468 -0.405106 0.911099
1.04783 0.832608 -0.393452 0.898202
1.041 0.984375 -0.38802 0.884077
1.05094 0.833257 -0.393146 0.867842
1.04217 0.680626 -0.413113 0.849519
1.05857 0.524189 -0.45673 0.831403
1.04422 0.36055 -0.533676 0.816888
1.071 0.182818 -0.658417 0.812866
1.04882 -0.0180668 -0.847977 0.828398
1.0918 -0.25817 -1.12776 0.879548
1.01443 -0.535671 -0.81359 0.964496
1.08923 -0.841028 -0.539098 1.0737
0.99732 -1.16511 -0.284607 0.950967
1.12065 -0.893573 -0.0644199 0.882375
0.992986 -0.720829 0.0943794 0.908978
1.09238 -0.593103 0.224394 0.976998
1.00079 -0.482221 0.346093 1.05826
1.09272 -0.407487 0.451331 0.982189
0.994269 -0.358401 0.546284 1.04257
1.09342 -0.323268 0.636773 0.986184
0.992064 -0.29909 0.724303 1.03558
1.09373 -0.281232 0.810766 0.98854
0.992597 -0.274097 0.895317 1.03763
1.09261 -0.275598 0.978546 0.984404
0.993742 -0.294001 1.06043 1.05003
1.0913 -0.329317 0.979858 0.972008
0.993856 -0.36834 0.899308 0.89409
1.09148 -0.41282 0.818478 0.818029
0.994148 -0.464575 0.73689 0.745644
1.09317 -0.530882 0.65257 0.684211
0.99553 -0.619279 0.562452 0.641267
1.09869 -0.745903 0.45963 0.632951
1.00098 -0.93227 0.333133 0.680777
1.11096 -1.21667 0.16524 0.823037
0.97604 -0.87155 -0.0313877 1.03241
0.872808 -0.58863 -0.259707 0.875245
0.807673 -0.374553 -0.526125 0.783322
0.755815 -0.177325 -0.805819 0.704649
0.728962 0.00247183 -1.11052 0.639807
0.772205 0.151809 -0.835843 0.601825
0.883109 0.277075 -0.62883 0.584313
1.01698 0.394525 -0.444788 0.571018
0.924125 0.503482 -0.312506 0.562616
0.8935 0.60428 -0.242459 0.558772
0.88312 0.702697 -0.192656 0.55371
0.87716 0.799493 -0.147275 0.546669
0.872917 0.89491 -0.103609 0.537406
0.874952 0.990624 -0.0662222 0.524247
0.885172 0.895015 -0.0370197 0.505826
0.899925 0.799783 -0.01235 0.483427
0.915752 0.703195 0.0112451 0.458785
0.932538 0.605076 0.0338812 0.432074
0.952221 0.505778 0.0536201 0.402941
0.978298 0.405575 0.0669661 0.371114
1.01684 0.304373 0.067848 0.336685
0.971085 0.201647 0.0596416 0.300181
0.926598 0.0970547 0.0501699 0.261943
0.883735 -0.00961731 0.0390748 0.222185
0.845143 -0.11915 0.0237074 0.181687
0.815296 -0.233412 -0.00040473 0.142319
0.801512 -0.356328 -0.0405795 0.108005
0.815604 -0.495481 -0.108629 0.0863265
0.876744 -0.664678 -0.223729 0.0910933
1.01668 -0.888098 -0.417619 0.146483
0.869061 -1.17723 -0.70247 0.263981
0.777848 -0.871602 -1.04372 0.423253
0.747985 -0.614432 -0.734294 0.627378
0.779092 -0.404229 -0.485835 0.874871
0.827665 -0.210992 -0.254842 1.13573
0.921389 -0.0750086 -0.0690002 0.924093
1.07242 -0.00853562 0.0595338 0.778366
0.944104 0.0112795 0.134876 0.675698
0.867129 -0.0111845 0.158876 0.611709
0.808216 -0.0505512 0.164813 0.561022
0.755561 -0.0973335 0.164494 0.514151
0.704975 -0.147924 0.162105 0.467488
0.654957 -0.20091 0.159148 0.419621
0.605095 -0.255881 0.156035 0.370139
0.555538 -0.313067 0.152618 0.319272
0.506708 -0.373154 0.148473 0.267705
0.459275 -0.437431 0.142931 0.216729
0.414251 -0.508238 0.13498 0.168683
0.373109 -0.589718 0.123147 0.12771
0.337939 -0.68908 0.105342 0.101018
0.311711 -0.81872 0.0785946 0.101005
0.298817 -0.999833 0.0385144 0.148865
0.296942 -0.800577 -0.0125857 0.23982
0.299329 -0.620633 -0.0679476 0.346487
0.303228 -0.447368 -0.124822 0.456233
0.307663 -0.27718 -0.182232 0.565456
0.313357 -0.111058 -0.240901 0.675145
0.322641 0.0478696 -0.30316 0.788428
0.340158 0.194647 -0.373651 0.910262
0.374586 0.321648 -0.461055 1.04827
0.423607 0.432662 -0.563051 0.901865
0.486658 0.533893 -0.679076 0.761642
0.591923 0.622079 -0.837316 0.630864
0.791095 0.701924 -1.08946 0.504826
1.05842 0.780189 -0.780679 0.376768
0.859008 0.873417 -0.551321 0.230148
0.74685 0.9872 -0.409213 0.0593724
0.659878 0.876534 -0.29229 -0.12871
0.585317 0.774234 -0.187778 -0.328758
0.514022 0.674494 -0.0865329 -0.534967
0.450617 0.587401 0.00682237 -0.757422
0.400596 0.533543 0.0867933 -1.01671
0.367674 0.547168 0.149666 -0.778516
0.346577 0.620468 0.200714 -0.603594
0.328839 0.713975 0.248402 -0.452479
0.311909 0.813213 0.295283 -0.310696
0.295108 0.912787 0.342034 -0.172848
0.2783 1.01117 0.388793 -0.0374061
0.258183 0.943785 0.43886 0.0646731
0.232769 0.91562 0.494225 0.123934
0.204796 0.897082 0.552148 0.16997
0.175652 0.879714 0.611242 0.211234
0.143364 0.865714 0.67348 0.24553
0.101991 0.861467 0.744804 0.266474
0.040066 0.876044 0.836679 0.264994
-0.0627429 0.9224 0.969439 0.228134
-0.241097 1.02031 1.17774 0.136121
-0.472414 0.892352 0.925081 0.00689825
-0.715092 0.769748 0.68378 -0.131279
-0.976602 0.657399 0.46131 -0.283311
-1.2697 0.563799 0.270432 -0.457692
-0.995656 0.507149 0.138247 -0.672622
-1.2662 0.511287 0.0803107 -0.951942
-0.972688 0.563913 0.070156 -1.28335
-0.716727 0.672769 0.0975567 -0.983009
-0.511752 0.876909 0.175943 -1.29134
-0.334808 1.13871 0.28236 -0.937395
-0.185288 0.954853 0.416201 -0.677042
-0.0716622 0.883001 0.585936 -0.532291
0.0272674 0.846961 0.770368 -0.426953
0.121392 0.819123 0.959604 -0.333416
0.213784 0.792132 1.15057 -0.244326
0.279932 0.792633 0.983928 -0.186328
0.311229 0.832613 1.13486 -0.17141
0.329648 0.888133 0.977669 -0.175631
0.343685 0.947647 0.824861 -0.187446
0.353623 1.01426 0.676153 -0.209962
0.358977 0.946414 0.532029 -0.247328
0.36274 0.882914 0.389496 -0.292642
0.366397 0.820984 0.247069 -0.343126
0.370821 0.768564 0.103875 -0.40672
0.379804 0.738907 -0.0438793 -0.496676
0.402558 0.753138 -0.205403 -0.634122
0.457229 0.844774 -0.398844 -0.852571
0.576082 1.06841 -0.656468 -1.20662
0.764581 0.81132 -0.983736 -0.819117
1.0277 0.646977 -0.676424 -0.52796
0.800381 0.582216 -0.499483 -0.339986
0.685919 0.59406 -0.435395 -0.232216
0.611944 0.633121 -0.411794 -0.155263
0.552613 0.681303 -0.402837 -0.0910314
0.498704 0.731918 -0.399301 -0.0328323
0.446906 0.782467 -0.397878 0.0218325
0.396011 0.831998 -0.397357 0.0739155
0.34555 0.880128 -0.397269 0.123799
0.295318 0.926682 -0.397411 0.171659
0.245204 0.971558 -0.397671 0.217597
0.195127 1.01468 -0.397968 0.261693
0.151865 0.980204 -0.405079 0.295338
0.11719 1.00821 -0.420779 0.316351
0.0861242 0.980376 -0.440087 0.331024
0.0604451 1.01024 -0.464782 0.337153
0.0388143 0.976622 -0.493525 0.336464
0.0185359 0.942868 -0.52362 0.332309
0.000633662 0.910056 -0.556092 0.323612
-0.0130597 0.879987 -0.592772 0.308572
-0.0192919 0.855655 -0.636914 0.284195
-0.0123383 0.842011 -0.694241 0.24553
0.0177963 0.84727 -0.77475 0.184362
0.08843 0.885169 -0.895757 0.0869539
0.229369 0.978941 -1.08707 -0.069928
0.443592 1.12994 -0.879898 -0.287635
0.704939 0.975787 -0.71985 -0.54974
1.01601 0.873081 -0.609526 -0.866891
0.673859 0.802348 -0.530744 -1.21962
0.374381 0.801302 -0.494635 -0.937883
0.129976 0.894977 -0.5136 -0.754472
-0.0989092 1.01953 -0.548083 -0.605539
-0.313649 0.92832 -0.596713 -0.506541
-0.514414 0.889808 -0.659317 -0.46384
-0.712094 0.866718 -0.725006 -0.440161
-0.909398 0.845872 -0.791072 -0.422327
-1.10698 0.826834 -0.856861 -0.409901
-0.910243 0.814601 -0.921239 -0.407879
-0.714576 0.812939 -0.98455 -0.420029
-0.515468 0.831705 -0.924558 -0.456206
-0.304292 0.891459 -0.876633 -0.536972
-0.0657364 1.02341 -0.856088 -0.693539
0.205225 0.874603 -0.867949 -0.928348
0.520369 0.804973 -0.923992 -1.24594
0.867847 0.787379 -1.01237 -0.879807
1.22114 0.774131 -0.926073 -0.521623
0.931826 0.80357 -0.911646 -0.209727
0.735251 0.885837 -0.989952 0.045743
0.600043 0.997742 -0.923393 0.267974
0.5316 0.882505 -0.923599 0.456133
0.498542 0.781456 -0.95919 0.626505
0.476447 0.680739 -1.00574 0.792944
0.460606 0.578801 -0.953875 0.957005
0.454027 0.472676 -0.911267 1.12165
0.456355 0.362346 -0.877567 0.954709
0.458978 0.250082 -0.844161 0.7861
0.461956 0.135865 -0.81111 0.615844
0.465258 0.0197211 -0.778383 0.443916
0.468811 -0.0983144 -0.745908 0.270279
0.472525 -0.218203 -0.713594 0.0948943
0.476299 -0.339909 -0.681339 -0.082272
0.480132 -0.463429 -0.649143 -0.261225
0.484215 -0.588796 -0.617197 -0.441931
0.488974 -0.716061 -0.585927 -0.624338
0.495229 -0.845278 -0.556153 -0.808394
0.50448 -0.976451 -0.529376 -0.994094
0.518312 -1.10945 -0.507179 -0.808508
0.542286 -0.978708 -0.495125 -0.622553
0.5867 -0.856409 -0.50351 -0.431757
0.665895 -0.748862 -0.546677 -0.22981
0.803999 -0.667487 -0.648752 -0.00528897
1.04187 -0.632358 -0.850589 0.261878
0.766042 -0.639336 -1.13994 0.56755
0.545736 -0.679286 -0.856548 0.902596
0.366185 -0.7518 -0.613907 1.2666
0.222662 -0.89098 -0.407294 0.944863
0.110572 -1.10133 -0.232114 0.69069
0.017876 -0.948246 -0.0763282 0.523585
-0.0593885 -0.892817 0.0640263 0.450534
-0.13545 -0.864756 0.203178 0.401252
-0.213108 -0.846291 0.343926 0.357965
-0.29849 -0.848439 0.492398 0.331692
-0.40779 -0.892351 0.664787 0.343581
-0.572417 -1.00778 0.892505 0.423385
-0.820184 -0.8931 1.20336 0.589238
-1.12948 -0.83638 0.863345 0.809448
-0.841262 -0.824092 0.576778 1.07049
-0.633617 -0.902245 0.370785 0.836539
-0.479949 -1.05853 0.218768 0.677118
-0.357823 -0.93564 0.0982932 0.58622
-0.261748 -0.883676 0.00386973 0.562646
-0.171517 -0.854426 -0.0847093 0.558185
-0.0820723 -0.832511 -0.172502 0.557458
0.00769386 -0.821007 -0.260617 0.563544
0.100761 -0.832806 -0.352033 0.589331
0.205445 -0.888671 -0.455065 0.655585
0.339179 -1.02128 -0.587147 0.794986
0.5095 -0.873154 -0.755817 1.01198
0.69747 -0.76079 -0.942136 0.765074
0.900565 -0.665062 -1.14358 0.531202
1.12729 -0.589716 -0.938234 0.314112
0.956215 -0.550609 -0.808266 0.129661
0.874355 -0.551106 -0.767508 -0.0187861
0.824367 -0.565189 -0.758623 -0.157247
0.784854 -0.584315 -0.760214 -0.294264
0.747652 -0.605837 -0.764115 -0.432486
0.711476 -0.629276 -0.769042 -0.57239
0.679208 -0.654744 -0.777877 -0.713867
0.656032 -0.68187 -0.795805 -0.857284
0.650876 -0.709118 -0.831753 -1.00418
0.669173 -0.734422 -0.891153 -0.858171
0.722624 -0.757345 -0.985707 -0.718142
0.803245 -0.780287 -0.871285 -0.581695
0.895961 -0.806114 -0.768957 -0.445963
1.01355 -0.838296 -0.691499 -0.307476
0.890864 -0.879359 -0.641801 -0.163707
0.780154 -0.926049 -0.604075 -0.0179118
0.675698 -0.978521 -0.572604 0.130066
0.58965 -1.04784 -0.55954 0.291289
0.525286 -0.977517 -0.568161 0.472432
0.484408 -0.93871 -0.600267 0.68149
0.481602 -0.956124 -0.670446 0.94317
0.53996 -1.07254 -0.801789 1.30025
0.660062 -0.936528 -0.994875 0.923573
0.835236 -0.879718 -0.808754 0.622498
1.05106 -0.868376 -0.663286 0.363291
0.875264 -0.903318 -0.577116 0.146768
0.767221 -0.988821 -0.558702 -0.0227936
0.699816 -0.906661 -0.580927 -0.164647
0.661437 -0.84648 -0.632178 -0.288121
0.629886 -0.792004 -0.690256 -0.409489
0.602587 -0.74061 -0.752587 -0.531377
0.589607 -0.693754 -0.829237 -0.652325
0.608432 -0.650931 -0.937691 -0.772841
0.687833 -0.607443 -1.10672 -0.897622
0.806868 -0.562593 -0.898953 -1.02736
0.93375 -0.517454 -0.699031 -0.899565
1.0707 -0.471475 -0.509175 -0.776206
0.97684 -0.417846 -0.367747 -0.664097
0.945454 -0.354129 -0.288791 -0.565676
0.937028 -0.288081 -0.232794 -0.473186
0.937311 -0.222373 -0.185507 -0.383956
0.941145 -0.157919 -0.141771 -0.297073
0.946646 -0.0950329 -0.0997016 -0.21222
0.953109 -0.03383 -0.0585947 -0.129285
0.960254 0.025644 -0.0181694 -0.0482211
0.967953 0.0833654 0.0217021 0.0309955
0.976131 0.139319 0.061094 0.10838
0.984734 0.193491 0.100061 0.183946
0.979041 0.245903 0.135719 0.257672
0.977659 0.296533 0.167067 0.32958
0.977975 0.345325 0.196715 0.399726
0.979016 0.392281 0.225639 0.468108
0.980397 0.437411 0.254223 0.534717
0.979445 0.480656 0.282153 0.59961
0.979216 0.521998 0.30936 0.662806
0.979199 0.561502 0.336356 0.724239
0.979256 0.599189 0.363277 0.783891
0.979509 0.635019 0.390002 0.841798
0.980266 0.66888 0.416223 0.898075
0.979551 0.700656 0.441695 0.952837
0.980043 0.730091 0.465959 1.00634
0.984922 0.754022 0.483228 0.955779
0.978396 0.771007 0.489777 0.908564
0.977201 0.784144 0.490997 0.861597
0.977549 0.795138 0.490673 0.813173
0.981068 0.804123 0.487179 0.763157
0.978401 0.81149 0.477989 0.71116
0.985545 0.818639 0.458988 0.655781
0.979424 0.827637 0.425888 0.594952
0.99414 0.842754 0.371952 0.524405
0.981186 0.869346 0.289704 0.438783
1.00384 0.917232 0.167684 0.328266
0.987027 1.00026 -0.00964624 0.179011
1.00377 0.920829 -0.248055 -0.0187152
1.00085 0.898008 -0.561298 -0.276648
1.02635 0.956976 -0.985789 -0.61997
0.941658 1.07051 -0.502101 -1.02146
0.926976 1.04119 -0.088426 -0.70418
1.00219 1.0277 0.235353 -0.526408
0.918696 1.0329 0.512205 -0.437045
0.859968 1.00822 0.764291 -0.408328
0.806979 1.01759 1.01064 -0.405469
0.754009 1.00577 0.764862 -0.410715
0.700679 1.02667 0.519447 -0.430695
0.648809 1.00719 0.272572 -0.475903
0.605285 1.04106 0.0173508 -0.562143
0.579337 1.00976 -0.255445 -0.706371
0.589207 1.06317 -0.564061 -0.933266
0.658919 1.01851 -0.932518 -1.27368
0.767866 1.00932 -1.34021 -0.879423
0.928145 1.05413 -0.974974 -0.53537
1.16676 0.993572 -0.688078 -0.261396
0.962272 1.07223 -0.498199 -0.0598501
0.864734 0.981284 -0.415274 0.0634531
0.814368 1.04431 -0.379522 0.148727
0.782606 0.986745 -0.362374 0.218437
0.766725 1.03675 -0.361106 0.274677
0.75681 0.986646 -0.365804 0.3251
0.75636 1.03866 -0.379969 0.367894
0.765481 0.984549 -0.403703 0.403246
0.790816 1.04346 -0.443651 0.428456
0.843184 0.984866 -0.510632 0.438413
0.941119 1.04939 -0.623181 0.426869
1.11634 0.990173 -0.813016 0.382589
0.91409 1.03709 -1.0669 0.312558
0.784473 1.00414 -0.848631 0.215102
0.723245 1.02419 -0.69875 0.0891593
0.681055 1.00039 -0.567909 -0.0486153
0.648285 1.02495 -0.446487 -0.19523
0.625973 1.00296 -0.335523 -0.354026
0.622609 1.03701 -0.243507 -0.539638
0.645525 1.00835 -0.177772 -0.769518
0.702445 1.05813 -0.14604 -1.07017
0.798968 1.01033 -0.153911 -0.771494
0.920677 1.02315 -0.186968 -0.53368
1.05258 1.00356 -0.230215 -0.314981
0.933091 1.0345 -0.293377 -0.119967
0.843443 0.99981 -0.386374 0.0437636
0.767472 1.02163 -0.493049 0.19282
0.693626 1.0012 -0.601848 0.33868
0.62615 1.02242 -0.717018 0.479171
0.569411 1.00165 -0.842925 0.613066
0.535237 1.02422 -0.991396 0.738113
0.542163 1.00191 -0.851863 0.852248
0.581333 1.0203 -0.744574 0.959117
0.630048 1.00124 -0.64683 1.0633
0.682205 1.02014 -0.552528 0.959279
0.736557 1.00135 -0.46042 0.853455
0.79547 1.02052 -0.372875 0.745347
0.864432 1.00246 -0.295377 0.633463
0.953553 1.0233 -0.238039 0.513908
1.07742 1.00717 -0.215445 0.379186
0.934755 1.0154 -0.216339 0.232487
0.796268 1.00728 -0.221409 0.0816036
0.666931 1.02081 -0.235628 -0.078982
0.555504 1.01353 -0.267759 -0.260932
0.471064 1.03328 -0.326876 -0.482967
0.421924 1.02408 -0.421293 -0.768108
0.418134 1.05356 -0.56106 -1.14718
0.462072 1.01572 -0.748554 -0.759746
0.532693 1.01363 -0.962733 -0.42987
0.61581 1.01465 -1.18941 -0.116562
0.736076 1.02562 -0.985687 0.169264
0.920108 1.01259 -1.19307 0.41769
1.13923 1.00923 -0.953349 0.647159
0.987016 1.02402 -0.783291 0.862625
1.07483 0.997772 -0.685398 1.06412
1.00526 1.02283 -0.613508 0.863812
1.06453 0.999769 -0.575573 0.661375
0.99487 1.02197 -0.550912 0.455677
1.08861 1.00882 -0.55321 0.238533
0.98127 1.01821 -0.592946 0.00464953
1.12035 1.03133 -0.688253 -0.264732
0.963767 1.00884 -0.853364 -0.58276
0.878043 1.05175 -1.08933 -0.960484
0.850504 0.983472 -0.822137 -1.39295
0.872056 1.08856 -0.604035 -0.997293
0.945835 0.956356 -0.438161 -1.36584
1.06746 0.898231 -0.320132 -1.02621
0.931215 0.913743 -0.249943 -1.33647
0.831193 0.987856 -0.215978 -1.04054
0.763599 0.901205 -0.214441 -1.32393
0.727069 0.879094 -0.243968 -1.05723
0.731677 0.942344 -0.314633 -1.32806
0.762742 1.05718 -0.411755 -1.01933
0.82249 0.97901 -0.53756 -1.36473
0.920195 0.965576 -0.701323 -0.997051
1.08856 1.04245 -0.935744 -1.41258
0.897633 0.938352 -1.26324 -0.969827
0.815864 0.94047 -0.974393 -0.636891
0.834934 1.02978 -0.786387 -0.39475
0.909511 0.94184 -0.653888 -0.203244
1.02185 0.88393 -0.559146 -0.0453702
0.931518 0.849284 -0.504787 0.0856384
0.883696 0.83719 -0.492935 0.190497
0.85106 0.831129 -0.496268 0.285721
0.82332 0.825503 -0.504499 0.376911
0.796734 0.818534 -0.513882 0.465843
0.771116 0.810035 -0.524234 0.552706
0.748511 0.800394 -0.537598 0.637111
0.732651 0.789964 -0.557708 0.718704
0.730089 0.778797 -0.591116 0.797434
0.752038 0.76609 -0.649034 0.874105
0.817391 0.74923 -0.750357 0.951329
0.957863 0.722318 -0.926799 1.035
1.22214 0.674823 -1.22704 0.957866
0.985164 0.600894 -0.9541 0.903562
1.12509 0.512167 -0.791326 0.860456
1.01487 0.414024 -0.671383 0.823165
1.09989 0.304805 -0.598777 0.793351
1.01446 0.188035 -0.547896 0.767488
1.1086 0.0592162 -0.527041 0.750073
0.995834 -0.0788968 -0.52629 0.738353
1.13999 -0.236374 -0.55841 0.742397
0.973722 -0.418676 -0.63268 0.767666
0.836536 -0.622632 -0.736034 0.810989
0.750867 -0.872051 -0.890904 0.896175
0.750379 -1.20965 -1.13096 1.06594
0.858573 -0.882937 -0.894126 0.907061
1.04294 -0.646354 -0.733467 0.834711
0.883785 -0.470096 -0.638456 0.819086
0.786572 -0.347498 -0.605385 0.853521
0.712037 -0.246003 -0.594992 0.905459
0.64612 -0.153789 -0.593218 0.963079
0.583777 -0.0665461 -0.595016 1.02207
0.532995 0.00824549 -0.608376 0.971716
0.496407 0.0684265 -0.63593 0.932374
0.464738 0.12275 -0.668404 0.89529
0.434363 0.174296 -0.702171 0.857382
0.404462 0.223747 -0.736411 0.81797
0.376016 0.270613 -0.772107 0.777543
0.351203 0.313987 -0.811436 0.737008
0.334012 0.352591 -0.858388 0.697643
0.331514 0.384763 -0.920032 0.661109
0.35596 0.408529 -1.00862 0.629382
0.401629 0.426037 -0.906565 0.600313
0.452679 0.440917 -0.809893 0.570272
0.505845 0.453734 -0.715335 0.538694
0.559882 0.46467 -0.62165 0.505397
0.614275 0.473785 -0.52832 0.47032
0.668768 0.481097 -0.435089 0.433448
0.723332 0.486611 -0.34193 0.394772
0.778197 0.490349 -0.249072 0.354273
0.833838 0.492378 -0.15699 0.311883
0.891146 0.492884 -0.066575 0.267415
0.951705 0.492296 0.0205886 0.220442
1.01825 0.491536 0.101766 0.170042
0.961989 0.495061 0.164948 0.111756
0.923163 0.503331 0.210695 0.0451245
0.888249 0.511782 0.25253 -0.0252881
0.856617 0.521082 0.291082 -0.100149
0.833195 0.536924 0.321424 -0.185153
0.824635 0.570203 0.336905 -0.291193
0.839718 0.64013 0.328742 -0.437481
0.890817 0.779301 0.284563 -0.656613
0.997456 1.04259 0.184845 -1.00346
0.896414 0.798449 0.0118303 -0.675761
0.850481 0.677934 -0.216293 -0.475285
0.820434 0.581963 -0.460303 -0.302953
0.801298 0.491818 -0.715224 -0.140047
0.82403 0.420249 -1.01201 0.00068377
0.917411 0.368891 -0.723512 0.117603
1.06344 0.32677 -0.487664 0.221685
0.960252 0.288664 -0.321022 0.318152
0.931602 0.252127 -0.22892 0.40945
0.925767 0.212781 -0.159634 0.499957
0.925371 0.170751 -0.0957862 0.589549
0.930742 0.124722 -0.0377054 0.679539
0.95078 0.0692429 0.00570837 0.775379
0.998851 -0.00723204 0.0210888 0.888615
0.950587 -0.115262 0.000673409 1.02981
0.923538 -0.245516 -0.0409561 0.876418
0.905724 -0.388457 -0.0918213 0.732117
0.903767 -0.551243 -0.158543 0.604061
0.929195 -0.74597 -0.25265 0.504346
1.002 -0.993129 -0.39413 0.453463
0.910476 -0.72592 -0.576931 0.444248
0.830366 -0.472307 -0.771144 0.44503
0.755861 -0.223728 -0.97096 0.447245
0.70312 0.0135824 -1.19254 0.457129
0.706887 0.233356 -0.99493 0.48095
0.789411 0.43631 -1.19082 0.51799
0.918824 0.631516 -0.964785 0.559179
1.05796 0.824628 -0.748474 0.598862
0.96216 1.02158 -0.578204 0.631108
0.938864 0.826094 -0.480439 0.648917
0.950076 0.636699 -0.417182 0.657039
0.969826 0.446311 -0.362463 0.662553
0.99911 0.252848 -0.317277 0.667543
0.967968 0.0545025 -0.285603 0.673815
0.956753 -0.154445 -0.273856 0.687089
0.985637 -0.389937 -0.302209 0.723309
0.963493 -0.673311 -0.389302 0.803809
1.0268 -1.04435 -0.56185 0.968371
0.911302 -0.616415 -0.78764 1.18936
0.831432 -0.228265 -1.04906 1.00502
0.830853 0.0917936 -0.796715 1.18102
0.921986 0.349267 -0.636078 1.00785
1.06835 0.569879 -0.530669 1.15247
0.96156 0.768214 -0.480228 1.02182
0.905784 0.946868 -0.480796 1.1359
0.860117 1.1222 -0.491475 1.02203
0.821315 0.947773 -0.509017 1.13499
0.788732 0.770781 -0.532778 1.02288
0.778759 0.587961 -0.57915 1.13741
0.807569 0.39126 -0.664304 1.02852
0.90759 0.162548 -0.820669 1.1499
1.11945 -0.125036 -1.08887 1.04289
0.88356 -0.470502 -0.796639 1.13454
0.69433 -0.845928 -0.551065 1.03033
0.536212 -1.26552 -0.336602 1.16131
0.435021 -0.90584 -0.179067 1.09024
0.380404 -0.683372 -0.0681055 1.10776
0.346507 -0.536093 0.0221361 1.08176
0.323396 -0.436333 0.101591 1.08856
0.304491 -0.362269 0.176841 1.07913
0.287439 -0.3041 0.250237 1.0814
0.270755 -0.253445 0.323266 1.07792
0.254106 -0.207462 0.39626 1.07977
0.237281 -0.165273 0.469429 1.07867
0.219661 -0.129703 0.543393 1.08185
0.200066 -0.104365 0.619333 1.0802
0.176086 -0.0944384 0.699657 1.08549
0.143878 -0.1066 0.78821 1.08324
0.0967329 -0.15025 0.891699 1.09185
0.0242355 -0.238087 1.02054 1.08958
-0.073582 -0.365048 0.885838 1.08046
-0.196388 -0.529765 0.776123 1.0996
-0.352832 -0.750065 0.700047 1.08826
-0.555418 -1.05143 0.670113 1.11728
-0.799848 -0.726512 0.682022 1.06471
-1.06419 -0.435355 0.71384 1.0994
-0.832495 -0.186248 0.789955 1.09087
-0.657227 0.0137208 0.922493 1.08032
-0.505995 0.193651 1.07907 1.08085
-0.403395 0.343857 0.958955 1.10003
-0.364884 0.456492 0.902931 1.06899
-0.352824 0.552999 0.873359 1.09044
-0.350249 0.643328 0.853272 1.06863
-0.353593 0.729377 0.839102 1.08891
-0.358981 0.81294 0.826978 1.06837
-0.368834 0.893681 0.819319 1.08951
-0.388067 0.970886 0.821039 1.06848
-0.424362 1.04444 0.839821 1.08951
-0.492556 0.97108 0.890502 1.06829
-0.61673 0.892694 0.997164 1.09127
-0.789779 0.808368 0.868323 1.06743
-1.0001 0.716862 0.77675 1.09337
-0.801414 0.612285 0.744653 1.07123
-0.64798 0.495497 0.757803 1.08871
-0.507222 0.372773 0.783629 1.06961
-0.372796 0.245181 0.815788 1.08926
-0.24658 0.110531 0.856156 1.07126
-0.137087 -0.0397063 0.913247 1.09614
-0.0538597 -0.217655 0.996604 1.0765
0.00365529 -0.426912 0.910148 1.09449
0.0357559 -0.675576 0.849106 1.08625
0.0345012 -0.991411 0.821419 1.11251
-0.00440605 -0.683092 0.831385 1.09377
-0.0727309 -0.449194 0.870769 1.08671
-0.157395 -0.249178 0.926491 1.07902
-0.248168 -0.0605939 0.988324 1.079
-0.345478 0.119929 0.931459 1.08336
-0.450329 0.292 0.882136 1.07505
-0.560168 0.459042 0.837801 1.0839
-0.680429 0.619175 0.803887 1.0764
-0.824724 0.769101 0.794009 1.08585
-1.01721 0.905908 0.832322 1.07736
-0.810006 1.03323 0.918674 1.08125
-0.623466 0.907341 1.02569 1.07593
-0.47758 0.775794 0.951313 1.08489
-0.379262 0.636338 0.924503 1.07454
-0.292256 0.492588 0.909005 1.08266
-0.207894 0.345801 0.896151 1.07552
-0.133259 0.191166 0.893024 1.08649
-0.0780199 0.0193919 0.909292 1.08098
-0.0540771 -0.185415 0.956857 1.09692
-0.0747802 -0.444911 1.04907 1.0922
-0.14427 -0.770424 0.9551 1.09702
-0.26818 -1.1824 0.915553 1.11254
-0.44705 -0.764564 0.930965 1.09116
-0.659006 -0.407328 0.979464 1.07806
-0.886687 -0.0701231 1.04369 1.08507
-1.1273 0.255482 0.979009 1.07573
-0.929993 0.556259 0.970113 1.10063
-0.801939 0.830297 1.03047 1.06208
-0.718696 1.09371 0.97551 1.09816
-0.665321 0.83346 0.950421 1.05892
-0.621646 0.570706 0.935031 1.09884
-0.595933 0.301042 0.937603 1.06265
-0.612945 0.0104097 0.982901 1.10916
-0.684899 -0.314152 0.933153 1.06528
-0.82905 -0.697923 0.955601 1.13181
-1.07842 -1.18326 1.08327 1.085
-0.843551 -0.71454 0.970103 1.14842
-0.731354 -0.375235 0.979607 1.0599
-0.679739 -0.0979462 1.04969 1.10612
-0.667491 0.148611 0.997615 1.07091
-0.683959 0.37338 1.02104 1.08617
-0.705659 0.594158 1.00279 1.07307
-0.739728 0.808952 1.023 1.086
-0.78767 1.01888 1.00233 1.07212
-0.865232 0.809325 1.0392 1.08563
-0.988127 0.594032 1.00184 1.07469
-0.843042 0.373631 1.01701 1.08243
-0.698765 0.151154 1.00219 1.07485
-0.564519 -0.0784776 1.02589 1.08735
-0.449279 -0.322044 1.00228 1.07672
-0.365464 -0.595491 1.03821 1.10142
-0.324151 -0.916753 1.00104 1.08058
-0.337454 -1.31598 1.05158 1.12771
-0.417342 -0.922868 0.999642 1.0867
-0.541682 -0.605716 1.03084 1.08719
-0.687701 -0.317755 0.997607 1.08045
-0.84823 -0.0460568 1.0257 1.0805
-1.02077 0.21555 1.00025 1.08097
-0.867536 0.459548 1.04501 1.0875
-0.771842 0.680194 1.00452 1.07972
-0.713027 0.887549 1.02007 1.07869
-0.666098 1.09111 1.00447 1.07902
-0.629276 0.888231 1.01835 1.07801
-0.601729 0.683 1.00535 1.07964
-0.594227 0.47169 1.02823 1.08112
-0.618263 0.248661 1.00696 1.08217
-0.689438 0.00193074 1.04223 1.09057
-0.823618 -0.282669 1.00884 1.08689
-1.0421 -0.628222 1.06165 1.10894
-0.773647 -1.0159 0.958865 1.04969
-0.549349 -0.677052 0.900238 1.15777
-0.407593 -0.441378 0.924152 1.05028
-0.311562 -0.264588 0.993791 1.11289
-0.246217 -0.122332 0.943939 1.07081
-0.212802 -0.0152178 0.926017 1.09297
-0.193383 0.0762808 0.92209 1.0712
-0.181295 0.158847 0.925495 1.08589
-0.171571 0.237633 0.931263 1.07313
-0.165404 0.311736 0.940589 1.08486
-0.160819 0.382862 0.951497 1.07246
-0.159523 0.45012 0.965694 1.08643
-0.164252 0.512013 0.985915 1.07239
-0.173499 0.569661 0.964025 1.08537
-0.184955 0.62446 0.944343 1.07205
-0.200359 0.675849 0.928609 1.08627
-0.222779 0.722784 0.919892 1.0722
-0.257322 0.76399 0.923297 1.0874
-0.312949 0.797356 0.947787 1.07318
-0.404773 0.820297 1.00847 1.08901
-0.531953 0.834045 0.936378 1.07034
-0.692553 0.840266 0.897703 1.09018
-0.909961 0.835678 0.915836 1.07244
-1.22406 0.81578 1.03066 1.09258
-0.925934 0.776641 0.931809 1.07398
-0.732139 0.721886 0.937289 1.08741
-0.575558 0.658775 0.979983 1.07188
-0.431422 0.591034 1.03512 1.08578
-0.308114 0.514629 0.996293 1.07755
-0.204212 0.429798 1.01739 1.07988
-0.104577 0.340981 0.998884 1.07901
-0.0123616 0.24587 1.01795 1.08072
0.0734304 0.144318 0.997328 1.07832
0.148088 0.0301991 1.02422 1.08755
0.207196 -0.102781 0.995477 1.07779
0.245379 -0.266909 1.03145 1.10036
0.257702 -0.474414 0.993183 1.0772
0.238194 -0.746508 1.03971 1.12216
0.180834 -1.10421 0.99094 1.07641
0.0910838 -0.744259 1.03649 1.11991
-0.0332194 -0.464744 0.996322 1.07653
-0.181086 -0.231785 1.02012 1.08592
-0.336153 -0.00996318 0.996333 1.0751
-0.503394 0.199126 1.02508 1.08894
-0.689284 0.39357 0.997844 1.07399
-0.915332 0.568215 1.04508 1.09521
-1.20259 0.720559 0.9989 1.07023
-0.923844 0.856437 1.05359 1.09313
-0.731078 0.978671 1.00559 1.06948
-0.599489 1.09278 1.02209 1.08836
-0.498104 0.979489 1.00612 1.06866
-0.416298 0.864187 1.01094 1.08865
-0.342133 0.746296 1.00533 1.06895
-0.273552 0.62555 1.00967 1.08863
-0.209171 0.50175 1.00522 1.06917
-0.154832 0.371675 1.01562 1.09163
-0.115484 0.231762 1.00422 1.06974
-0.0996277 0.0734002 1.02513 1.09967
-0.114199 -0.111819 1.00165 1.0701
-0.17015 -0.340624 1.03865 1.11604
-0.277 -0.628561 0.99765 1.06928
-0.450568 -1.00419 1.05846 1.14542
-0.696736 -0.61271 0.983713 1.05343
-0.984278 -0.276755 1.04118 1.11557
-0.745376 0.00374407 1.03235 1.08321
-0.602994 0.218968 1.01633 1.09562
-0.519081 0.398378 1.01915 1.0737
-0.470575 0.558128 1.00647 1.08897
-0.440811 0.708325 1.01234 1.07024
-0.419329 0.854 1.00282 1.08741
-0.402079 0.996984 1.01195 1.06998
-0.391826 0.854053 1.00597 1.08735
-0.397402 0.707265 1.01762 1.07151
-0.427513 0.553334 1.009 1.08911
-0.492873 0.386049 1.02531 1.07597
-0.606694 0.196691 1.01453 1.09337
-0.785101 -0.0275259 1.03591 1.08449
-1.04824 -0.303119 1.02407 1.10136
-0.745058 -0.6141 0.995869 1.06052
-0.464856 -0.946967 1.03286 1.11183
-0.213538 -1.31478 0.992984 1.06311
0.00082671 -0.976307 1.04382 1.14117
0.161339 -0.747541 0.998929 1.0766
0.283221 -0.600288 1.02265 1.09948
0.386549 -0.496433 1.00002 1.08017
0.477172 -0.424364 1.0157 1.0843
0.562093 -0.369401 0.999966 1.08068
0.643461 -0.326567 1.01361 1.07881
0.723584 -0.289905 0.999748 1.0802
0.803171 -0.257102 1.01312 1.07698
0.882624 -0.226924 0.999838 1.0808
0.961863 -0.200396 1.01311 1.0774
1.04087 -0.179899 0.99986 1.08276
0.962073 -0.16696 1.0129 1.07697
0.883088 -0.165093 1.00022 1.0867
0.803187 -0.178536 1.01328 1.07727
0.720474 -0.213626 1.00174 1.09275
0.632563 -0.27755 1.01414 1.07841
0.535032 -0.380765 1.00529 1.10206
0.42268 -0.535151 1.01579 1.08097
0.287087 -0.758194 1.01206 1.11698
0.118651 -1.07006 1.01862 1.08622
-0.0804515 -0.742796 1.00705 1.10158
-0.301812 -0.464059 1.01522 1.07147
-0.535023 -0.205937 1.00004 1.08842
-0.781367 0.0385311 1.02351 1.07768
-1.06016 0.259652 1.01107 1.0919
-0.805408 0.448065 1.04755 1.08356
-0.63818 0.601967 1.00704 1.08782
-0.529673 0.734739 1.02279 1.07426
-0.453041 0.857439 1.00496 1.08607
-0.395892 0.974362 1.01247 1.07172